{
  "description": "",
  "language": "de",
  "shortDescription": "",
  "examples": "",
  "linkToDocs": "",
  "disableInteractionLogs": false,
  "disableStackdriverLogs": true,
  "googleAssistant": {
    "googleAssistantCompatible": true,
    "project": "digitale-gesundheitsversorg-oi",
    "welcomeIntentSignInRequired": false,
    "startIntents": [],
    "systemIntents": [],
    "endIntentIds": [
      "55640b2f-ae73-40bb-9467-871774ba7733",
      "4bbd9050-3b98-4832-88de-0f1d4926854a"
    ],
    "oAuthLinking": {
      "required": false,
      "providerId": "",
      "authorizationUrl": "",
      "tokenUrl": "",
      "scopes": "",
      "privacyPolicyUrl": "",
      "grantType": "AUTH_CODE_GRANT"
    },
    "voiceType": "MALE_1",
    "capabilities": [],
    "env": "",
    "protocolVersion": "V2",
    "autoPreviewEnabled": false,
    "isDeviceAgent": false
  },
  "defaultTimezone": "Europe/Madrid",
  "webhook": {
    "url": "",
    "username": "",
    "headers": {},
    "available": false,
    "useForDomains": false,
    "cloudFunctionsEnabled": false,
    "cloudFunctionsInitialized": false
  },
  "isPrivate": true,
  "customClassifierMode": "use.after",
  "mlMinConfidence": 0.3,
  "supportedLanguages": [],
  "onePlatformApiVersion": "v2beta1",
  "analyzeQueryTextSentiment": false,
  "enabledKnowledgeBaseNames": [],
  "knowledgeServiceConfidenceAdjustment": -0.4,
  "dialogBuilderMode": false,
  "baseActionPackagesUrl": ""
}